{
  "users": [
    {
      "name": "Sayyed Abrar Akhtar",
      "id": 1
    },
    {
      "name": "Kari Lesch II",
      "id": 5
    }
  ],
  "albums": [
    {
      "id": 1,
      "title": "Nouman Ali Khan",
      "userId": 1
    },
    {
      "userId": 5,
      "title": "Generic Soft Table",
      "id": 16
    },
    {
      "userId": 1,
      "title": "Rustic Fresh Computer",
      "id": 17
    },
    {
      "userId": 1,
      "title": "Licensed Bronze Ball",
      "id": 18
    },
    {
      "userId": 1,
      "title": "Tasty Bronze Fish",
      "id": 19
    }
  ],
  "photos": [
    {
      "albumId": 18,
      "url": "https://loremflickr.com/150/150/abstract?lock=8951889171316736",
      "id": 2
    },
    {
      "albumId": 1,
      "url": "https://loremflickr.com/150/150/abstract?lock=7721171202080768",
      "id": 3
    },
    {
      "albumId": 1,
      "url": "https://loremflickr.com/150/150/abstract?lock=8835460231069696",
      "id": 4
    },
    {
      "albumId": 19,
      "url": "https://loremflickr.com/150/150/abstract?lock=3042012420898816",
      "id": 5
    }
  ]
}